…
The function **daily_vaccinations_function** that takes in a country as
an input and outputs the number of doses administered for the country
chosen from 2020-present

``` r
library(genworld)
daily_vaccinations_function('Algeria')
#> # A tibble: 584 × 3
#>    location date       daily_vaccinations
#>    <chr>    <date>                  <dbl>
#>  1 Algeria  2021-01-29                 NA
#>  2 Algeria  2021-01-30                 30
#>  3 Algeria  2021-01-31               1889
#>  4 Algeria  2021-02-01               2509
#>  5 Algeria  2021-02-02               2819
#>  6 Algeria  2021-02-03               3005
#>  7 Algeria  2021-02-04               3129
#>  8 Algeria  2021-02-05               3217
#>  9 Algeria  2021-02-06               3748
#> 10 Algeria  2021-02-07               3748
#> # … with 574 more rows
```
…
